{
  "data": [{
      "state": "New York",
      "nmPatient": 3025,
      "color": "#FF0F00"
    },
    {
      "state": "New Jersey",
      "nmPatient": 1882,
      "color": "#FF6600"
    },
    {
      "state": "Texas",
      "nmPatient": 1809,
      "color": "#FF9E01"
    },
    {
      "state": "California",
      "nmPatient": 1322,
      "color": "#FCD202"
    },
    {
      "state": "Montana",
      "nmPatient": 1122,
      "color": "#F8FF01"
    },
    {
      "state": "Virginia",
      "nmPatient": 1114,
      "color": "#B0DE09"
    },
    {
      "state": "Florida",
      "nmPatient": 984,
      "color": "#04D215"
    },
    {
      "state": "New Mexico",
      "nmPatient": 711,
      "color": "#0D8ECF"
    },
    {
      "state": "Nevada",
      "nmPatient": 665,
      "color": "#0D52D1"
    },
    {
      "state": "Washington",
      "nmPatient": 580,
      "color": "#2A0CD0"
    },
    {
      "state": "Wisconsin",
      "nmPatient": 443,
      "color": "#8A0CCF"
    },
    {
      "state": "Arizona",
      "nmPatient": 441,
      "color": "#CD0D74"
    }
  ]
}
